[
    {
        "_id": "b-100",
        "_parentId": "a-10",
        "_type": "block",
        "_classes": "",
        "title": "",
        "displayTitle": "",
        "body": "",
        "_trackingId": 0
    },
    {
        "_id": "b-110",
        "_parentId": "a-10",
        "_type": "block",
        "_classes": "",
        "title": "",
        "displayTitle": "",
        "body": "",
        "_trackingId": 1
    },
    {
        "_id": "b-199",
        "_parentId": "a-10",
        "_type": "block",
        "_classes": "",
        "title": "",
        "displayTitle": "",
        "body": "",
        "_trackingId": 2
    },
    {
        "_id": "b-200",
        "_parentId": "a-20",
        "_type": "block",
        "_classes": "",
        "title": "",
        "displayTitle": "",
        "body": "",
        "_trackingId": 3
    },
    {
        "_id": "b-210",
        "_parentId": "a-20",
        "_type": "block",
        "_classes": "",
        "title": "",
        "displayTitle": "",
        "body": "",
        "_trackingId": 4
    },
    {
        "_id": "b-220",
        "_parentId": "a-20",
        "_type": "block",
        "_classes": "",
        "title": "",
        "displayTitle": "",
        "body": "",
        "_trackingId": 5
    },
    {
        "_id": "b-230",
        "_parentId": "a-20",
        "_type": "block",
        "_classes": "",
        "title": "",
        "displayTitle": "",
        "body": "",
        "_trackingId": 6
    },
    {
        "_id": "b-299",
        "_parentId": "a-20",
        "_type": "block",
        "_classes": "",
        "title": "",
        "displayTitle": "",
        "body": "",
        "_trackingId": 7
    },
    {
        "_id": "b-300",
        "_parentId": "a-30",
        "_type": "block",
        "_classes": "",
        "title": "",
        "displayTitle": "",
        "body": "",
        "_trackingId": 8
    },
    {
        "_id": "b-310",
        "_parentId": "a-30",
        "_type": "block",
        "_classes": "",
        "title": "",
        "displayTitle": "",
        "body": "",
        "_trackingId": 9
    },
    {
        "_id": "b-399",
        "_parentId": "a-30",
        "_type": "block",
        "_classes": "",
        "title": "",
        "displayTitle": "",
        "body": "",
        "_trackingId": 10
    },
    {
        "_id": "b-400",
        "_parentId": "a-40",
        "_type": "block",
        "_classes": "",
        "title": "",
        "displayTitle": "",
        "body": "",
        "_trackingId": 11
    },
    {
        "_id": "b-410",
        "_parentId": "a-40",
        "_type": "block",
        "_classes": "",
        "title": "",
        "displayTitle": "",
        "body": "",
        "_trackingId": 12
    },
    {
        "_id": "b-420",
        "_parentId": "a-40",
        "_type": "block",
        "_classes": "",
        "title": "",
        "displayTitle": "",
        "body": "",
        "_trackingId": 13
    },
    {
        "_id": "b-430",
        "_parentId": "a-40",
        "_type": "block",
        "_classes": "",
        "title": "",
        "displayTitle": "",
        "body": "",
        "_trackingId": 14
    },
    {
        "_id": "b-440",
        "_parentId": "a-40",
        "_type": "block",
        "_classes": "",
        "title": "",
        "displayTitle": "",
        "body": "",
        "_trackingId": 15
    },
    {
        "_id": "b-499",
        "_parentId": "a-40",
        "_type": "block",
        "_classes": "",
        "title": "",
        "displayTitle": "",
        "body": "",
        "_trackingId": 16
    },
    {
        "_id": "b-500",
        "_parentId": "a-50",
        "_type": "block",
        "_classes": "",
        "title": "",
        "displayTitle": "",
        "body": "",
        "_trackingId": 17
    },
    {
        "_id": "b-510",
        "_parentId": "a-50",
        "_type": "block",
        "_classes": "",
        "title": "",
        "displayTitle": "",
        "body": "",
        "_trackingId": 18
    },
    {
        "_id": "b-599",
        "_parentId": "a-50",
        "_type": "block",
        "_classes": "",
        "title": "",
        "displayTitle": "",
        "body": "",
        "_trackingId": 19
    },
    {
        "_id": "b-600",
        "_parentId": "a-60",
        "_type": "block",
        "_classes": "",
        "title": "",
        "displayTitle": "",
        "body": "",
        "_trackingId": 20
    },
    {
        "_id": "b-610",
        "_parentId": "a-60",
        "_type": "block",
        "_classes": "",
        "title": "",
        "displayTitle": "",
        "body": "",
        "_trackingId": 21
    },
    {
        "_id": "b-620",
        "_parentId": "a-60",
        "_type": "block",
        "_classes": "",
        "title": "",
        "displayTitle": "",
        "body": "",
        "_trackingId": 22
    },
    {
        "_id": "b-630",
        "_parentId": "a-60",
        "_type": "block",
        "_classes": "",
        "title": "",
        "displayTitle": "",
        "body": "",
        "_trackingId": 23
    },
    {
        "_id": "b-699",
        "_parentId": "a-60",
        "_type": "block",
        "_classes": "",
        "title": "",
        "displayTitle": "",
        "body": "",
        "_trackingId": 24
    }
]