﻿[
	{
		"_id": "c-100",
		"_parentId": "b-100",
		"_type": "component",
		"_component": "text",
		"_classes": "",
		"_layout": "full",
		"title": "Pendahuluan",
		"displayTitle": "",
		"body": "Pemirsa Khusus membantu Anda menggabungkan data yang Anda miliki untuk menjangkau orang di Facebook dan Instagram, di beberapa perangkat, dengan cara yang selalu melindungi privasi pemirsa Anda.<br><br>Tidak seperti Pemirsa Inti, yang hanya menggunakan data Facebook, Pemirsa Khusus membantu Anda menguraikan data Anda dengan aman dan memadukannya dengan data Facebook yang sudah diuraikan. Dengan proses tersebut, pengiklan dapat menjangkau pelanggan yang ada di Facebook dan Instagram dengan cara yang aman bagi privasi. <br><br>Untuk memastikan Anda mengirimkan pesan yang tepat kepada pemirsa yang tepat, Anda dapat memadukan Pemirsa Khusus dengan opsi penargetan Facebook lain, seperti lokasi, demografi, minat, perilaku, dan koneksi.<br><br>Pemirsa Khusus juga menjadi dasar untuk membuat Pemirsa Serupa, sehingga marketer dapat menemukan orang yang mirip dengan pelanggan dan klien yang sudah ada.<br><br>Untuk memahami tentang Pemirsa Khusus dengan lebih baik, kami sarankan kursus Blueprint berikut:<br><br><em><ul><li>Pengelola Iklan</li><li>Penargetan: Pemirsa Inti</li><li>SDK Seluler</li><li>Menggunakan Piksel Facebook untuk Mengukur, Mengoptimalkan, dan Membuat Pemirsa untuk Kampanye</li><li>Penargetan: Pemirsa Serupa</li></ul>",
		"instruction": "",
		"_isComplete": false,
		"_pageLevelProgress": {
			"_isEnabled": true
		}
	},
	{
		"_id": "c-110",
		"_parentId": "b-110",
		"_type": "component",
		"_component": "text",
		"_classes": "",
		"_layout": "left",
		"title": "Tujuan Pembelajaran",
		"displayTitle": "",
		"body": "Dengan menyelesaikan kursus ini, Anda akan dapat:<br><br><ul><li>Mengidentifikasi bagaimana dan kapan menggunakan Pemirsa Khusus</li><li>Mengetahui proses keamanan data Pemirsa Khusus</li><li>Membuat daftar praktik terbaik untuk alat Pemirsa Khusus</li><li>Membuat Pemirsa Khusus</li></ul>",
		"instruction": "",
		"_isComplete": true,
		"_pageLevelProgress": {
			"_isEnabled": true
		}
	},
	{
		"_id":"c-199",
		"_parentId":"b-199",
		"_type":"component",
		"_component":"co-jump",
		"_classes":"color-test",
		"_preLinkBody":"Mari mulai dengan ",
		"_linkBody":"Sinopsis Pemirsa Khusus",
		"_postLinkBody":".",
		"_link":"#/id/co-02",
		"_graphic":"adapt/css/assets/icon_nextPage.png",
		"_pageLevelProgress": {
			"_isEnabled": false
		}
	},
	{
		"_id": "c-200",
		"_parentId": "b-200",
		"_type":"component",
		"_component":"text",
		"_classes":"",
		"_layout":"full",
		"title":"Sumber Pemirsa Khusus:",
		"displayTitle":"Sumber Pemirsa Khusus:",
		"body": "Marketer dapat membuat Pemirsa Khusus secara aman dari berbagai sumber.<br><br><ul><li style='list-style-image:url(course/en/images/glyph-friend-id-card.png)'><strong>File data</strong>: Buat pemirsa dari CRM, POS, daftar email, atau sumber lainnya</li><li style='list-style-image:url(course/en/images/glyph-internet.png)'><strong>Data situs web</strong>: Jangkau pelanggan yang sudah ada dan orang yang sudah menunjukkan minat pada bisnis Anda</li><li style='list-style-image:url(course/en/images/glyph-apps.png)'><strong>Data aplikasi seluler</strong>: Gunakan iklan Facebook untuk berinteraksi dengan orang berdasarkan interaksi mereka dengan aplikasi Anda </li><li style='list-style-image:url(course/en/images/glyph-facebook.png)'><strong>Interaksi Facebook</strong>: Targetkan iklan kepada orang yang sudah berinteraksi dengan Halaman, video, iklan prospek, dan pengalaman layar penuh Canvas Anda di Facebook</li></ul>",
		"instruction":"",
		"_isComplete": true,
		"_pageLevelProgress": {
			"_isEnabled": true
		}
	},
	{
		"_id": "c-210",
		"_parentId": "b-210",
		"_type":"component",
		"_component":"text",
		"_classes":"",
		"_layout":"full",
		"title":"Dari file data",
		"displayTitle":"Buat dari file data",
		"body": "Gunakan detail pelanggan dan prospek — seperti alamat email, nomor telepon, nama depan atau belakang, kode pos, kota, negara, iOS IDFA, ID Pengiklan Android, dan ID pengguna aplikasi — dari manajemen hubungan pelanggan atau database tempat penjualan organisasi untuk membuat Pemirsa Khusus. Hal ini dilakukan dengan sangat aman dan selalu mempertimbangkan masalah privasi. Anda dapat menggunakan data Anda:&#160;<br><br><ul><li>Untuk menargetkan penayangan untuk semua tujuan iklan.</li><li>Untuk merefleksikan upaya email dan surat langsung.</li><li>Untuk mengukur nilai peningkatan yang Anda terima dari Facebook.</li></ul><br>Semakin banyak data yang Anda berikan, maka akan semakin baik pula tingkat kecocokan untuk Pemirsa Khusus Anda. Pelajari cara untuk membuat Pemirsa Khusus dari daftar pelanggan di pusat bantuan bisnis.",
		"instruction":"",
		"_isComplete": true,
		"_pageLevelProgress": {
			"_isEnabled": true
		}
	},
	{
		"_id": "c-220",
		"_parentId": "b-220",
		"_type": "component",
		"_component": "text",
		"_classes": "",
		"_layout": "full",
		"title": "Dari situs web atau aplikasi Anda",
		"displayTitle": "Buat dari situs web atau aplikasi Anda",
		"body": "Data minat biasanya diambil dari perilaku orang-orang di situs web atau aplikasi seluler Anda. Anda dapat menggunakannya untuk:<br><br><ul><li>Menjangkau orang berdasarkan tindakan tertentu yang sudah mereka ambil di situs web atau aplikasi seluler Anda.</li><li>Menghindari pembelanjaan uang terhadap iklan kepada orang yang sudah menyelesaikan tindakan tertentu.</li><li>Melakukan remarketing berdasarkan kesimpulan minat.</li><li>Buat Pemirsa Serupa yang terdiri dari orang-orang yang mirip dengan pelanggan dan klien terbaik Anda.</li></ul><br>Data situs web dan aplikasi seluler (yang dikumpulkan melalui piksel dan SDK Facebook) diperbarui secara realtime saat orang berinteraksi dengan situs web dan aplikasi Anda, sehingga Pemirsa Khusus yang dibuat dari sumber ini lebih dinamis dari Pemirsa Khusus yang berasal dari file data. <br><br><h2>Data situs web</h2>Piksel Facebook adalah sepotong kecil kode yang dapat Anda atau pengembang web Anda salin dan tempelkan ke situs web Anda yang sudah ada. Data piksel membantu penyaji iklan Facebook mengenali orang di semua perangkat yang mereka gunakan — selama mereka masuk ke Facebook. Data piksel adalah seed potensial untuk Pemirsa Khusus.<br><br>Anda dapat menentukan halaman mana di situs Anda — dan tindakan apa yang diambil orang di situs Anda — yang akan memicu piksel ini. <br><br>Selanjutnya, buat Pemirsa Khusus dan set iklan yang ditargetkan berdasarkan tindakan ini untuk menarget orang berdasarkan lokasi mereka dalam perjalanan pelanggan. Misalnya, marketer dapat memilih untuk melacak peristiwa seperti “tambahkan barang ke keranjang belanja”, dan menargetkan pesan yang mendorong untuk menyelesaikan pembelian atau menambahkan lebih banyak barang untuk diskon kepada orang yang meninggalkan keranjang belanjanya.<br><br><h2>Data aplikasi seluler</h2>Software development kit (SDK) Facebook setara dengan piksel untuk aplikasi seluler. Melacak peristiwa seperti “barang ditambahkan ke daftar keinginan” atau “menyelesaikan pendaftaran” untuk menargetkan interaksi dan konversi. Pengembang game dapat melacak peristiwa seperti “menyelesaikan tutorial” atau “level dicapai” untuk memberi hadiah kepada pemain dan mendorong pembelian dalam aplikasi.<br><br>Anda dapat menggunakan data SDK untuk membuat Pemirsa Khusus dan menargetkan pesan khusus kepada pengguna aplikasi.",
		"instruction": "",
		"_isComplete": false,
		"_pageLevelProgress": {
			"_isEnabled": true
		}
	},
	{
		"_id": "c-230",
		"_parentId": "b-230",
		"_type": "component",
		"_component": "text",
		"_classes": "",
		"_layout": "full",
		"title": "Dari interaksi Facebook",
		"displayTitle": "Buat dari interaksi Facebook",
		"body": "Pemirsa Khusus Interaksi didasarkan hanya pada data Facebook, sehingga Anda tidak perlu menambahkan piksel atau SDK ke kode apa pun untuk membuat Pemirsa Khusus ini.<br><br>Anda dapat menargetkan penayangan iklan berdasarkan bagaimana orang berinteraksi dengan:<br><br><ul><li><strong>Halaman Facebook Anda</strong>: Menayangkan iklan kepada orang yang sudah melihat Halaman Anda, berinteraksi dengan kiriman atau iklan Anda, mengeklik tombol ajakan bertindak, mengirim pesan ke Halaman Anda, atau menyimpan konten dari Halaman Anda.</li><li><strong>Video yang dikirimkan ke Halaman Anda</strong>: Menayangkan iklan kepada orang yang menonton video yang dikirimkan ke Halaman Anda selama durasi atau persentase tertentu.</li><li><strong>Iklan Prospek Anda</strong>: Menayangkan iklan kepada orang yang membuka formulir, membuka formulir namun tidak mengirimkannya, atau membuka dan mengirimkan formulir.</li><li><strong>Pengalaman seluler layar penuh Canvas</strong>: Menayangkan iklan kepada orang yang membuka pengalaman Canvas, atau kepada orang yang berinteraksi dengan Canvas.</li></ul>",
		"instruction": "",
		"_isComplete": true,
		"_pageLevelProgress": {
			"_isEnabled": true
		}
	},
	{
		"_id":"c-299",
		"_parentId":"b-299",
		"_type":"component",
		"_component":"co-jump",
		"_classes":"color-test",
		"_preLinkBody":"Pelajari bagaimana Facebook melindungi ",
		"_linkBody":"keamanan data Anda dan privasi pelanggan",
		"_postLinkBody":" saat Anda membagikan informasi Anda.",
		"_link":"#/id/co-03",
		"_graphic":"adapt/css/assets/icon_nextPage.png",
		"_pageLevelProgress": {
			"_isEnabled": false
		}
	},
	{
		"_id": "c-300",
		"_parentId": "b-300",
		"_type": "component",
		"_component": "text",
		"_classes": "",
		"_layout": "full",
		"title": "Keamanan data",
		"displayTitle": "",
		"body": "Saat Anda membuat Pemirsa Khusus dari file data, data milik Anda dan data Facebook dienkripsi dengan kuat melalui proses yang disebut penguraian data. Informasi asal tidak pernah bisa diekstraksi, dan privasi pengguna dilindungi.<br><br>Pemirsa Khusus dirancang untuk memaksimalkan keamanan data dan privasi. Sistem kami sudah diaudit oleh pihak ketiga independen, PricewaterhouseCoopers. Mereka mengonfirmasi bahwa mekanisme keamanan Facebook melindungi data pengiklan selama pembuatan, penggunaan, dan penyimpanan Pemirsa Khusus mereka.<br><br>Pengiklan juga dapat bekerja dengan mitra data pihak ketiga untuk mengelola Pemirsa Khusus di Facebook dan Instagram. Mitra data pihak ketiga harus mematuhi prosedur yang aman bagi privasi (mis, penguraian data) ketika bekerja dengan Facebook untuk membuat Pemirsa Khusus.<br><br>Dengan fitur penolakan, pengguna dapat mengontrol iklan apa yang mereka lihat.",
		"instruction": "",
		"_isComplete": false,
		"_pageLevelProgress": {
			"_isEnabled": true
		}
	},
	{
		"_id": "c-310",
		"_parentId": "b-310",
		"_type": "component",
		"_component": "text",
		"_classes": "",
		"_layout": "full",
		"title": "Penguraian data",
		"displayTitle": "Penguraian data",
		"body": "Pemirsa Khusus Anda merupakan unit solid dan dienkripsi dengan kuat, dirancang agar Anda dan Facebook tidak dapat mengidentifikasi orang secara individual di dalamnya.<br><br><h2>Cara kerjanya</h2><br><ol><li>Unggah daftar target atau prospek ke Facebook melalui browser web Anda: Browser Anda mengurai semua informasi secara lokal di komputer Anda. Proses ini dirancang agar Facebook tidak menerima informasi yang tidak terenkripsi atau mengidentifikasi detail tentang orang di daftar Anda.</li><br><li>Hubungkan ke API dengan aman: Browser Anda terhubung melalui SSL ke akun iklan Facebook Anda, mengautentikasi kredensial akun Facebook Anda, lalu meneruskan daftar nilai yang diurai ke API iklan kami.</li><br><li>Membandingkan kunci enkripsi: Facebook memiliki nilai terurai yang dikomputasi sebelumnya untuk setiap pengguna Facebook. Saat kami menerima daftar nilai yang sudah diurai, kami akan membandingkannya dengan milik kami.</li><br><li>Pemirsa Khusus Anda dibuat: Untuk setiap uraian yang cocok, kami menambahkan pengguna Facebook ke Pemirsa Khusus yang disimpan dalam akun iklan Anda. Setiap uraian yang tidak cocok akan diabaikan.</li><br><li>Menghapus informasi rahasia: Setelah proses pencocokan selesai, kami menghapus semua uraian — baik yang cocok dan tidak cocok.</li></ol><br>Hasil Pemirsa Khusus disimpan di akun iklan Anda, dan hanya pengurus akun resmi yang dapat meminta iklan untuk ditayangkan kepada Pemirsa Khusus tersebut. Tidak seorang pun dapat mengidentifikasi individual di Pemirsa Khusus Anda; Anda hanya akan melihat perkiraan jumlah orang yang ada di dalamnya.",
		"instruction": "",
		"_isComplete": true,
		"_pageLevelProgress": {
			"_isEnabled": true
		}
	},
	{
		"_id":"c-399",
		"_parentId":"b-399",
		"_type":"component",
		"_component":"co-jump",
		"_classes":"color-test",
		"_preLinkBody":"Anda siap? Mari ",
		"_linkBody":"membuat Pemirsa Serupa",
		"_postLinkBody":".",
		"_link":"#/id/co-04",
		"_graphic":"adapt/css/assets/icon_nextPage.png",
		"_pageLevelProgress": {
			"_isEnabled": false
		}
	},





	{
		"_id": "c-400",
		"_parentId": "b-400",
		"_type": "component",
		"_component": "text",
		"_classes": "",
		"_layout": "full",
		"title": "",
		"displayTitle": "",
		"body": "Anda dapat membuat Pemirsa Khusus di Pengelola Iklan atau Power Editor, atau dari area Pemirsa di akun iklan Anda. ",
		"instruction": "",
		"_isComplete": false,
		"_pageLevelProgress": {
			"_isEnabled": false
		}
	},
	{
		"_id": "c-410",
		"_parentId": "b-410",
		"_type": "component",
		"_component": "graphic",
		"_classes": "",
		"_layout": "full",
		"title": "Sumber data",
		"displayTitle": "Sumber data",
		"body": "Pilih sumber data, dan beri nama dan keterangan berguna untuk pemirsa Anda. ",
		"instruction": "",
		"_graphic": {
			"large": "course/en/images/create_custom.png",
			"small": "course/en/images/create_custom.png",
			"alt": "Menu pemilihan untuk memilih sumber data"
		},
		"_isComplete": false,
		"_pageLevelProgress": {
			"_isEnabled": true
		}
	},
	{
		"_id":"c-420",
		"_parentId":"b-420",
		"_type":"component",
		"_component":"survey-radio",
		"_classes":"",
		"_layout":"left",
		"title":"",
		"displayTitle":"",
		"body":"",
		"instruction":"Pilih tindakan dari menu untuk melihat keterangannya.",
		"userSelection": [],
		"_items": [
			{
				"label": "Dari file pelanggan",
				"value": "1"
			},
			{
				"label": "Dari lalu lintas situs web",
				"value": "2"
			},
			{
				"label": "Dari aktivitas aplikasi",
				"value": "3"
			},
			{
				"label": "Dari interaksi di Facebook",
				"value": "4"
			}
		],
		"_isComplete": false,
		"_pageLevelProgress": {
			"_isEnabled": false
		}
	},
	{
		"_id":"c-425",
		"_parentId":"b-420",
		"_type":"component",
		"_component":"survey-feedback",
		"_classes":"texture_concrete",
		"_layout":"right",
		"title":"",
		"displayTitle":"",
		"body":"",
		"instruction":"",
		"feedbackBody": "",
		"feedbackPostBody": "",
		"prefix": "",
		"suffix": "",
		"limitFeedback": true,
		"feedback": [
			{
				"resultsFor": ["c-420"],
				"condition": "is",
				"value": "1",
				"response": "Unggah file, salin dan tempelkan data, atau impor langsung dari MailChimp.<br><br>Anda juga dapat menyertakan file pelanggan nilai sepanjang masa untuk membuat Pemirsa serupa yang mirip dengan pelanggan atau klien Anda yang paling berharga."
			},
			{
				"resultsFor": ["c-420"],
				"condition": "is",
				"value": "2",
				"response": "Gunakan data piksel untuk menargetkan atau mengecualikan pengiriman pesan kepada orang yang mengunjungi situs web, atau halaman web tertentu dalam rentang waktu tertentu.<br><br>Anda juga dapat menyertakan atau mengecualikan orang berdasarkan waktu yang dihabiskan di situs Anda."
			},
			{
				"resultsFor": ["c-420"],
				"condition": "is",
				"value": "3",
				"response": "Buat pemirsa yang terdiri dari: <br><br><ul><li>Siapa saja yang membuka aplikasi</li><li>Pengguna yang paling aktif</li><li>Pengguna berdasarkan waktu yang dihabiskan</li><li>Pengguna berdasarkan segmen</li></ul>"
			},
			{
				"resultsFor": ["c-420"],
				"condition": "is",
				"value": "4",
				"response": "Buat pemirsa yang terdiri dari: <br><br><ul><li>Orang yang menonton video Anda di Facebook atau Instagram </li><li>Orang yang membuka atau menyelesaikan formulir di iklan prospek Anda</li><li>Orang yang membuka pengalaman seluler Canvas Anda di Facebook</li><li>Orang yang berinteraksi dengan Halaman Anda</li></ul>"
			}
		],
		"_isComplete": false,
		"_pageLevelProgress": {
			"_isEnabled": false
		}
	},
	{
		"_id": "c-430",
		"_parentId": "b-430",
		"_type": "component",
		"_component": "text",
		"_classes": "",
		"_layout": "full",
		"title": "",
		"displayTitle": "",
		"body": "Diperlukan waktu hingga 24 jam untuk mengunggah data Pemirsa Khusus Anda ke Facebook. Anda akan diberi tahu segera setelah unggahan selesai.",
		"instruction": "",
		"_isComplete": false,
		"_pageLevelProgress": {
			"_isEnabled": false
		}
	},
	{
		"_id": "c-440",
		"_parentId": "b-440",
		"_type": "component",
		"_component": "text",
		"_classes": "",
		"_layout": "full",
		"title": "Praktik terbaik",
		"displayTitle": "Praktik terbaik",
		"body": "<h2>Selaraskan sumber data dengan tujuan Anda</h2><br>Pemirsa khusus dapat mencapai tujuan bisnis seperti akuisisi, retensi, dan interaksi ulang. Untuk hasil terbaik, gunakan sumber data yang selaras dengan tujuan Anda. Misalnya, jika Anda ingin meningkatkan penjualan, pemirsa seed Anda harus berisi orang yang sering berbelanja atau klien bernilai tinggi.<br><br>Semakin banyak data yang Anda berikan, maka akan semakin baik pula potensi tingkat kecocokan untuk Pemirsa Khusus Anda. Pelajari selengkapnya tentang <a href='https://facebook.com/help/606443329504150?__mref=message_bubble' target='_blank'>praktik terbaik persiapan data pelanggan</a> di Pusat Bantuan Pengiklan.<br><br><br><h2>Target semua perangkat</h2><br>Facebook dan Instagram menargetkan orang sesungguhnya, di semua perangkat yang mereka gunakan. Pertimbangkan penargetan lintas-perangkat untuk memastikan bahwa Anda mengirimkan pesan yang tepat kepada orang yang tepat di perangkat yang tepat. <br><br>Misalnya, jika pelanggan Anda cenderung melakukan lebih banyak konversi di desktop, Anda dapat membuat Pemirsa Khusus yang terdiri dari orang yang menyusuri corong konversi dan menjangkau mereka dengan pesan ajakan bertindak yang kuat pada perangkat tersebut.<br><br><br><h2>Gunakan data berkualitas untuk membuat Pemirsa Khusus Anda</h2><br>Saat membuat Pemirsa Khusus dari file data, data berkualitas tinggi — seperti alamat email atau data yang lebih baru — dapat meningkatkan total jumlah orang di pemirsa Anda.",
		"instruction": "",
		"_isComplete": false,
		"_pageLevelProgress": {
			"_isEnabled": true
		}
	},
	{
		"_id": "c-450",
		"_parentId": "b-440",
		"_type": "component",
		"_component": "text",
		"_classes": "",
		"_layout": "full",
		"title": "",
		"displayTitle": "",
		"body": "<div class='fb-button-wrapper'><a href='https://www.facebook.com/ads/manager/audiences/manage/?ref=course_targeting_custom_bp' target='_blank'><button class='bp-button'>Buat Pemirsa Khusus</button></a></div><!-- fb-button-wrapper end -->",
		"instruction": "",
		"_pageLevelProgress": {
				"_isEnabled": false
		}
	},
	{
		"_id":"c-499",
		"_parentId":"b-499",
		"_type":"component",
		"_component":"co-jump",
		"_classes":"color-test",
		"_preLinkBody":"",
		"_linkBody":"Gunakan Pemirsa Khusus untuk melakukan remarketing",
		"_postLinkBody":" dan cross-selling. Temukan tempat untuk mengelola dan melihat Pemirsa Khusus Anda.",
		"_link":"#/id/co-05",
		"_graphic":"adapt/css/assets/icon_nextPage.png",
		"_pageLevelProgress": {
			"_isEnabled": false
		}
	},
	{
		"_id":"c-500",
		"_parentId":"b-500",
		"_type":"component",
		"_component":"text",
		"_classes":"",
		"_layout":"full",
		"title":"Remarketing, upselling, dan cross-selling",
		"displayTitle": "Remarketing, upselling, dan cross-selling",
		"body": "Dengan melakukan remarketing, pengiklan dapat memperkuat pesan yang sudah dilihat orang. Upselling mendorong pembelanjaan pelanggan yang lebih besar. Dan strategi cross-selling menyarankan produk pelengkap: misalnya, menyarankan baterai kepada orang yang berbelanja senter. <br><br><h2>Targetkan penayangan iklan di sekitar corong akuisisi</h2>Pemirsa Khusus membantu Anda menyesuaikan strategi marketing Anda, tergantung apa yang diketahui orang tentang Anda dan lokasi mereka di corong pembelian. Anda mungkin ingin mengirim pesan marketing yang berbeda kepada pelanggan baru dan bernilai tinggi, mantan pelanggan atau pelanggan berisiko, atau orang yang sudah menunjukkan niat pembelian.<br><br>Misalnya: mengirimkan pesan edukasi kepada pelanggan baru, sementara pemirsa bernilai tinggi menerima pesan yang ditargetkan dan disesuaikan dengan kebutuhan mereka.<br><br>Mengapa ini penting? Studi Facebook IQ menemukan bahwa pesan marketing berurutan dapat meningkatkan hasil, dan bahwa memberi tahu orang cerita merek Anda sebelum meminta mereka membelanjakan uang dapat mendorong hasil yang diinginkan.<br><br><br><h2>Merefleksikan upaya segmentasi pemirsa yang sudah ada</h2>Pemirsa Khusus berfungsi sangat baik ketika dibuat untuk mencapai tujuan marketing tertentu. Manfaatkan apa yang sudah Anda ketahui tentang pelanggan Anda dan targetkan pesan yang dapat mendorong tindakan.<br><br>Misalnya, apakah Anda ingin terhubung kembali dengan anggota setia atau pelanggan buletin? Atau apakah Anda ingin menarget pelanggan yang meninggalkan barang di keranjang belanja online mereka dengan diskon spesial? Menayangkan set iklan berdasarkan hasil kepada segmen pemirsa untuk menyesuaikan pengalaman dan mendorong hasil.<br><br><br><h2>Kecualikan pelanggan yang sudah ada dari kampanye akuisisi.</h2>Jangan membayar untuk tayangan, klik, atau konversi yang tidak diperlukan dalam kampanye awareness dan akuisisi. Anda dapat mengecualikan pelanggan saat ini untuk memastikan pesan Anda mencapai target, dan anggaran Anda digunakan dengan efisien.<br><br><br><h2>Lengkapi kampanye yang sudah ada</h2>Pemirsa Khusus dari file data dapat melengkapi kampanye surat langsung Anda yang selanjutnya. Jangkau orang yang tidak membuka email, atau perkuat pesan surat langsung Anda dengan memperkuatnya di Facebook dan Instagram.<br><br><br><h2>Target orang yang sudah menunjukkan niat pembelian </h2>Terapkan piksel Facebook di situs web Anda dan/atau SDK di aplikasi seluler Anda untuk menarget orang berdasarkan minat. Tambahkan aturan tambahan — seperti frekuensi, waktu terbaru, atau waktu yang dihabiskan — untuk mengukur kekuatan tanda minat. Anda dapat mendasarkan penayangan iklan dan penempatan pada tindakan tertentu di situs web atau aplikasi seluler Anda, dan memperkuat pesan ini di Facebook dan Instagram.<br><br>Pertimbangkan remarketing kepada orang yang meninggalkan keranjang belanja mereka dengan pesan yang mengajak mereka kembali untuk membeli. Atau, lakukan cross-selling atau upselling kepada orang yang baru saja melakukan pembelian.",
		"instruction": "",
		"_isComplete": true,
		"_pageLevelProgress": {
			"_isEnabled": true
		}
	},
	{
		"_id": "c-510",
		"_parentId": "b-510",
		"_type": "component",
		"_component": "text",
		"_setCompletionOn": "inview",
		"_classes": "",
		"_layout": "full",
		"title": "Pelajari tentang Pemirsa Khusus Anda",
		"displayTitle": "Pelajari tentang Pemirsa Khusus Anda",
		"body": "Lihat detail gabungan dan anonim tentang Pemirsa Khusus Anda melalui alat Wawasan Pemirsa Facebook <br><br>Telusuri atau filter Pemirsa Khusus berdasarkan demografi, Halaman Facebook yang paling disukai, lokasi, aktivitas (seperti komentar atau mengeklik iklan — termasuk penggunaan perangkat), data rumah tangga dari pihak ketiga, dan riwayat pembelian. Data rumah tangga dan pembelian mungkin belum tersedia untuk semua pemirsa atau di semua negara.",
		"instruction": "",
		"_isComplete": true,
		"_pageLevelProgress": {
			"_isEnabled": true
		}
	},
	{
		"_id":"c-599",
		"_parentId":"b-599",
		"_type":"component",
		"_component":"co-jump",
		"_classes":"color-test",
		"_preLinkBody":"Apakah Anda siap untuk menguji keterampilan Anda? Mari kita lakukan ",
		"_linkBody":"Uji Pengetahuan",
		"_postLinkBody":" untuk mengetahui apa yang Anda ingat.",
		"_link":"#/id/co-06",
		"_graphic":"adapt/css/assets/icon_nextPage.png",
		"_pageLevelProgress": {
			"_isEnabled": false
		}
	},



	{
		"_id":"c-600",
		"_parentId":"b-600",
		"_type":"component",
		"_component":"mcq",
		"_classes":"",
		"_layout":"full",
		"_attempts":1,
		"_questionWeight":1,
		"_isRandom":false,
		"_selectable":1,
		"_isResetOnRevisit":true,
		"title": "Pertanyaan 1 dari 3",
		"displayTitle": "Pertanyaan 1 dari 3",
		"body": "Jenis pemirsa apa yang dapat membantu marketer menemukan orang yang mirip dengan pelanggan terbaiknya?",
		"instruction": "",
		"_setCompletionOn": "inview",
		"_items": [
			{
				"text": "Inti",
				"_shouldBeSelected":false
			},
			{
				"text": "Khusus",
				"_shouldBeSelected":false
			},
			{
				"text": "Serupa",
				"_shouldBeSelected":true
			},
			{
				"text": "Segmentasi",
				"_shouldBeSelected":false
			}
		],
		"_feedback":{
			"correct":"Tepat sekali! Pemirsa Serupa dapat menampilkan orang yang memiliki karakteristik yang sama dengan anggota Pemirsa Khusus yang sudah ada.",
			"_incorrect": {
				"notFinal": "",
				"final": "Maaf, kurang tepat. Pemirsa Serupa dapat menampilkan orang yang memiliki karakteristik yang sama dengan anggota Pemirsa Khusus yang sudah ada."
			}
		},
		"_buttons": {
			"_submit": {
				"buttonText": "Kirim",
				"ariaLabel": "Pilih di sini untuk mengirim jawaban Anda."
			},
			"_reset": {
				"buttonText": "Atur Ulang",
				"ariaLabel": ""
			},
			"_showCorrectAnswer": {
				"buttonText": "Jawaban yang Benar",
				"ariaLabel": ""
			},
			"_hideCorrectAnswer": {
				"buttonText": "Jawaban Saya",
				"ariaLabel": ""
			},
			"_showFeedback": {
				"buttonText": "Tampilkan masukan",
				"ariaLabel": ""
			},
			"remainingAttemptsText": "sisa percobaan",
			"remainingAttemptText": "percobaan terakhir"
		},
		"_pageLevelProgress": {
			"_isEnabled": true
		}
	},
	{
		"_id":"c-610",
		"_parentId":"b-610",
		"_type":"component",
		"_component":"mcq",
		"_classes":"",
		"_layout":"full",
		"_attempts":1,
		"_questionWeight":1,
		"_isRandom":false,
		"_selectable":1,
		"_isResetOnRevisit":true,
		"title": "Pertanyaan 2 dari 3",
		"displayTitle": "Pertanyaan 2 dari 3",
		"body": "Anda ingin membuat Pemirsa Khusus berdasarkan interaksi web. Apa yang harus Anda atau pengembang Anda sertakan dalam kode situs web? ",
		"instruction": "",
		"_setCompletionOn": "inview",
		"_items": [
			{
				"text": "Piksel Facebook",
				"_shouldBeSelected":true
			},
			{
				"text": "SDK Facebook",
				"_shouldBeSelected":false
			},
			{
				"text": "Penguraian data SSL",
				"_shouldBeSelected":false
			},
			{
				"text": "iOS IDFA",
				"_shouldBeSelected":false
			}
		],
		"_feedback":{
			"correct":"Benar! Piksel Facebook mengirimkan aktivitas situs web ke Facebook.",
			"_incorrect": {
				"notFinal": "",
				"final": "Maaf, jawaban salah. Piksel Facebook mengirimkan aktivitas situs web ke Facebook."
			}
		},
		"_buttons": {
			"_submit": {
				"buttonText": "Kirim",
				"ariaLabel": "Pilih di sini untuk mengirim jawaban Anda."
			},
			"_reset": {
				"buttonText": "Atur Ulang",
				"ariaLabel": ""
			},
			"_showCorrectAnswer": {
				"buttonText": "Jawaban yang Benar",
				"ariaLabel": ""
			},
			"_hideCorrectAnswer": {
				"buttonText": "Jawaban Saya",
				"ariaLabel": ""
			},
			"_showFeedback": {
				"buttonText": "Tampilkan masukan",
				"ariaLabel": ""
			},
			"remainingAttemptsText": "sisa percobaan",
			"remainingAttemptText": "percobaan terakhir"
		},
		"_pageLevelProgress": {
			"_isEnabled": true
		}
	},
	{
		"_id":"c-620",
		"_parentId":"b-620",
		"_type":"component",
		"_component":"mcq",
		"_classes":"",
		"_layout":"full",
		"_attempts":1,
		"_questionWeight":1,
		"_isRandom":false,
		"_selectable":1,
		"_isResetOnRevisit":true,
		"title": "Pertanyaan 3 dari 3",
		"displayTitle": "Pertanyaan 3 dari 3",
		"body": "Apa yang dapat Anda pelajari tentang anggota Pemirsa Khusus? ",
		"instruction": "",
		"_setCompletionOn": "inview",
		"_items": [
			{
				"text": "Mengunduh file data untuk melihat detail",
				"_shouldBeSelected":false
			},
			{
				"text": "Menjelajahi area Pemirsa di akun iklan Anda",
				"_shouldBeSelected":false
			},
			{
				"text": "Membuka Wawasan Pemirsa di akun iklan Anda",
				"_shouldBeSelected":true
			},
			{
				"text": "Membuat laporan di Pengelola Iklan",
				"_shouldBeSelected":false
			}
		],
		"_feedback":{
			"correct":"Luar Biasa!",
			"_incorrect": {
				"notFinal": "",
				"final": "Maaf, jawaban kurang tepat. Anda dapat memperoleh wawasan tentang pemirsa Anda melalui Wawasan Pemirsa."
			}
		},
		"_buttons": {
			"_submit": {
				"buttonText": "Kirim",
				"ariaLabel": "Pilih di sini untuk mengirim jawaban Anda."
			},
			"_reset": {
				"buttonText": "Atur Ulang",
				"ariaLabel": ""
			},
			"_showCorrectAnswer": {
				"buttonText": "Jawaban yang Benar",
				"ariaLabel": ""
			},
			"_hideCorrectAnswer": {
				"buttonText": "Jawaban Saya",
				"ariaLabel": ""
			},
			"_showFeedback": {
				"buttonText": "Tampilkan masukan",
				"ariaLabel": ""
			},
			"remainingAttemptsText": "sisa percobaan",
			"remainingAttemptText": "percobaan terakhir"
		},
		"_pageLevelProgress": {
			"_isEnabled": true
		}
	},
	{
		"_id": "c-630",
		"_parentId": "b-630",
		"_type": "component",
		"_component": "text",
		"_classes": "",
		"_layout": "full",
		"title": "Hasil",
		"displayTitle": "",
		"body": "Jika Anda mengalami kesulitan, jangan ragu untuk kembali ke kursus — bagian ini pendek dan Anda mungkin dapat memperoleh pengetahuan tambahan.",
		"instruction": "",
		"_pageLevelProgress": {
			"_isEnabled": false
		}
	},
	{
		"_id":"c-699",
		"_parentId":"b-699",
		"_type":"component",
		"_component":"co-jump",
		"_classes":"color-test",
		"_autoComplete":true,
		"_preLinkBody":"Klik tombol di bawah untuk menyelesaikan kursus ini. Catatan: <a href='#'>klik di sini</a> untuk memastikan bahwa Anda sudah menyelesaikan masing-masing modul.<br>",
		"_linkBody":"<div style = 'text-align:center;padding:8px;'><button class='buttons-action'><b>SAYA SUDAH MENYELESAIKAN KURSUS INI</b></button></div><br> ",
		"_postLinkBody":"",
		"_link":"",
		"_pageLevelProgress": {
			"_isEnabled": false
		}
	}
]
